^C:\USERS\PERO\DESKTOP\GAMEPROJECT\RACETRACK.0.1\RACETRACK.0.1\ANIMATION.CPP
/c /I"C:\USERS\PERO\DESKTOP\GAMEPROJECT\SFML-2.5.1\INCLUDE" /ZI /nologo /W3 /WX- /Od /Oy- /D WIN32 /D _DEBUG /D _CONSOLE /D _UNICODE /D UNICODE /Gm /EHsc /RTC1 /MDd /GS /fp:precise /Zc:wchar_t /Zc:forScope /Zc:inline /Fo"DEBUG\\" /Fd"DEBUG\VC140.PDB" /Gd /TP /analyze- C:\USERS\PERO\DESKTOP\GAMEPROJECT\RACETRACK.0.1\RACETRACK.0.1\ANIMATION.CPP
^C:\USERS\PERO\DESKTOP\GAMEPROJECT\RACETRACK.0.1\RACETRACK.0.1\BALL.CPP
/c /I"C:\USERS\PERO\DESKTOP\GAMEPROJECT\SFML-2.5.1\INCLUDE" /ZI /nologo /W3 /WX- /Od /Oy- /D WIN32 /D _DEBUG /D _CONSOLE /D _UNICODE /D UNICODE /Gm /EHsc /RTC1 /MDd /GS /fp:precise /Zc:wchar_t /Zc:forScope /Zc:inline /Fo"DEBUG\\" /Fd"DEBUG\VC140.PDB" /Gd /TP /analyze- C:\USERS\PERO\DESKTOP\GAMEPROJECT\RACETRACK.0.1\RACETRACK.0.1\BALL.CPP
^C:\USERS\PERO\DESKTOP\GAMEPROJECT\RACETRACK.0.1\RACETRACK.0.1\CAR.CPP
/c /I"C:\USERS\PERO\DESKTOP\GAMEPROJECT\SFML-2.5.1\INCLUDE" /ZI /nologo /W3 /WX- /Od /Oy- /D WIN32 /D _DEBUG /D _CONSOLE /D _UNICODE /D UNICODE /Gm /EHsc /RTC1 /MDd /GS /fp:precise /Zc:wchar_t /Zc:forScope /Zc:inline /Fo"DEBUG\\" /Fd"DEBUG\VC140.PDB" /Gd /TP /analyze- C:\USERS\PERO\DESKTOP\GAMEPROJECT\RACETRACK.0.1\RACETRACK.0.1\CAR.CPP
^C:\USERS\PERO\DESKTOP\GAMEPROJECT\RACETRACK.0.1\RACETRACK.0.1\CIRCLE.CPP
/c /I"C:\USERS\PERO\DESKTOP\GAMEPROJECT\SFML-2.5.1\INCLUDE" /ZI /nologo /W3 /WX- /Od /Oy- /D WIN32 /D _DEBUG /D _CONSOLE /D _UNICODE /D UNICODE /Gm /EHsc /RTC1 /MDd /GS /fp:precise /Zc:wchar_t /Zc:forScope /Zc:inline /Fo"DEBUG\\" /Fd"DEBUG\VC140.PDB" /Gd /TP /analyze- C:\USERS\PERO\DESKTOP\GAMEPROJECT\RACETRACK.0.1\RACETRACK.0.1\CIRCLE.CPP
^C:\USERS\PERO\DESKTOP\GAMEPROJECT\RACETRACK.0.1\RACETRACK.0.1\MAIN.CPP
/c /I"C:\USERS\PERO\DESKTOP\GAMEPROJECT\SFML-2.5.1\INCLUDE" /ZI /nologo /W3 /WX- /Od /Oy- /D WIN32 /D _DEBUG /D _CONSOLE /D _UNICODE /D UNICODE /Gm /EHsc /RTC1 /MDd /GS /fp:precise /Zc:wchar_t /Zc:forScope /Zc:inline /Fo"DEBUG\\" /Fd"DEBUG\VC140.PDB" /Gd /TP /analyze- C:\USERS\PERO\DESKTOP\GAMEPROJECT\RACETRACK.0.1\RACETRACK.0.1\MAIN.CPP
^C:\USERS\PERO\DESKTOP\GAMEPROJECT\RACETRACK.0.1\RACETRACK.0.1\MY_COMPONENTS.CPP
/c /I"C:\USERS\PERO\DESKTOP\GAMEPROJECT\SFML-2.5.1\INCLUDE" /ZI /nologo /W3 /WX- /Od /Oy- /D WIN32 /D _DEBUG /D _CONSOLE /D _UNICODE /D UNICODE /Gm /EHsc /RTC1 /MDd /GS /fp:precise /Zc:wchar_t /Zc:forScope /Zc:inline /Fo"DEBUG\\" /Fd"DEBUG\VC140.PDB" /Gd /TP /analyze- C:\USERS\PERO\DESKTOP\GAMEPROJECT\RACETRACK.0.1\RACETRACK.0.1\MY_COMPONENTS.CPP
^C:\USERS\PERO\DESKTOP\GAMEPROJECT\RACETRACK.0.1\RACETRACK.0.1\LOGIC.CPP
/c /I"C:\USERS\PERO\DESKTOP\GAMEPROJECT\SFML-2.5.1\INCLUDE" /ZI /nologo /W3 /WX- /Od /Oy- /D WIN32 /D _DEBUG /D _CONSOLE /D _UNICODE /D UNICODE /Gm /EHsc /RTC1 /MDd /GS /fp:precise /Zc:wchar_t /Zc:forScope /Zc:inline /Fo"DEBUG\\" /Fd"DEBUG\VC140.PDB" /Gd /TP /analyze- C:\USERS\PERO\DESKTOP\GAMEPROJECT\RACETRACK.0.1\RACETRACK.0.1\LOGIC.CPP
^C:\USERS\PERO\DESKTOP\GAMEPROJECT\RACETRACK.0.1\RACETRACK.0.1\CHARACTERS.CPP
/c /I"C:\USERS\PERO\DESKTOP\GAMEPROJECT\SFML-2.5.1\INCLUDE" /ZI /nologo /W3 /WX- /Od /Oy- /D WIN32 /D _DEBUG /D _CONSOLE /D _UNICODE /D UNICODE /Gm /EHsc /RTC1 /MDd /GS /fp:precise /Zc:wchar_t /Zc:forScope /Zc:inline /Fo"DEBUG\\" /Fd"DEBUG\VC140.PDB" /Gd /TP /analyze- C:\USERS\PERO\DESKTOP\GAMEPROJECT\RACETRACK.0.1\RACETRACK.0.1\CHARACTERS.CPP
