^C:\USERS\PERO\DESKTOP\GAMEPROJECT\RACETRACK.0.1\RACETRACK.0.1\ANIMATION.CPP|C:\USERS\PERO\DESKTOP\GAMEPROJECT\RACETRACK.0.1\RACETRACK.0.1\BALL.CPP|C:\USERS\PERO\DESKTOP\GAMEPROJECT\RACETRACK.0.1\RACETRACK.0.1\CAR.CPP|C:\USERS\PERO\DESKTOP\GAMEPROJECT\RACETRACK.0.1\RACETRACK.0.1\CIRCLE.CPP|C:\USERS\PERO\DESKTOP\GAMEPROJECT\RACETRACK.0.1\RACETRACK.0.1\MAIN.CPP|C:\USERS\PERO\DESKTOP\GAMEPROJECT\RACETRACK.0.1\RACETRACK.0.1\MY_COMPONENTS.CPP
C:\USERS\PERO\DESKTOP\GAMEPROJECT\RACETRACK.0.1\RACETRACK.0.1\DEBUG\VC140.PDB
C:\USERS\PERO\DESKTOP\GAMEPROJECT\RACETRACK.0.1\RACETRACK.0.1\DEBUG\VC140.IDB
C:\USERS\PERO\DESKTOP\GAMEPROJECT\RACETRACK.0.1\RACETRACK.0.1\DEBUG\ANIMATION.OBJ
C:\USERS\PERO\DESKTOP\GAMEPROJECT\RACETRACK.0.1\RACETRACK.0.1\DEBUG\BALL.OBJ
C:\USERS\PERO\DESKTOP\GAMEPROJECT\RACETRACK.0.1\RACETRACK.0.1\DEBUG\CAR.OBJ
C:\USERS\PERO\DESKTOP\GAMEPROJECT\RACETRACK.0.1\RACETRACK.0.1\DEBUG\CIRCLE.OBJ
C:\USERS\PERO\DESKTOP\GAMEPROJECT\RACETRACK.0.1\RACETRACK.0.1\DEBUG\MAIN.OBJ
C:\USERS\PERO\DESKTOP\GAMEPROJECT\RACETRACK.0.1\RACETRACK.0.1\DEBUG\MY_COMPONENTS.OBJ
^C:\USERS\PERO\DESKTOP\GAMEPROJECT\RACETRACK.0.1\RACETRACK.0.1\ANIMATION.CPP
C:\USERS\PERO\DESKTOP\GAMEPROJECT\RACETRACK.0.1\RACETRACK.0.1\DEBUG\VC140.PDB
C:\USERS\PERO\DESKTOP\GAMEPROJECT\RACETRACK.0.1\RACETRACK.0.1\DEBUG\VC140.IDB
C:\USERS\PERO\DESKTOP\GAMEPROJECT\RACETRACK.0.1\RACETRACK.0.1\DEBUG\ANIMATION.OBJ
^C:\USERS\PERO\DESKTOP\GAMEPROJECT\RACETRACK.0.1\RACETRACK.0.1\BALL.CPP
C:\USERS\PERO\DESKTOP\GAMEPROJECT\RACETRACK.0.1\RACETRACK.0.1\DEBUG\VC140.PDB
^C:\USERS\PERO\DESKTOP\GAMEPROJECT\RACETRACK.0.1\RACETRACK.0.1\CAR.CPP
C:\USERS\PERO\DESKTOP\GAMEPROJECT\RACETRACK.0.1\RACETRACK.0.1\DEBUG\VC140.PDB
C:\USERS\PERO\DESKTOP\GAMEPROJECT\RACETRACK.0.1\RACETRACK.0.1\DEBUG\VC140.IDB
C:\USERS\PERO\DESKTOP\GAMEPROJECT\RACETRACK.0.1\RACETRACK.0.1\DEBUG\CAR.OBJ
^C:\USERS\PERO\DESKTOP\GAMEPROJECT\RACETRACK.0.1\RACETRACK.0.1\CIRCLE.CPP
C:\USERS\PERO\DESKTOP\GAMEPROJECT\RACETRACK.0.1\RACETRACK.0.1\DEBUG\VC140.PDB
C:\USERS\PERO\DESKTOP\GAMEPROJECT\RACETRACK.0.1\RACETRACK.0.1\DEBUG\VC140.IDB
C:\USERS\PERO\DESKTOP\GAMEPROJECT\RACETRACK.0.1\RACETRACK.0.1\DEBUG\CIRCLE.OBJ
^C:\USERS\PERO\DESKTOP\GAMEPROJECT\RACETRACK.0.1\RACETRACK.0.1\MAIN.CPP
C:\USERS\PERO\DESKTOP\GAMEPROJECT\RACETRACK.0.1\RACETRACK.0.1\DEBUG\VC140.PDB
C:\USERS\PERO\DESKTOP\GAMEPROJECT\RACETRACK.0.1\RACETRACK.0.1\DEBUG\VC140.IDB
C:\USERS\PERO\DESKTOP\GAMEPROJECT\RACETRACK.0.1\RACETRACK.0.1\DEBUG\MAIN.OBJ
^C:\USERS\PERO\DESKTOP\GAMEPROJECT\RACETRACK.0.1\RACETRACK.0.1\MY_COMPONENTS.CPP
C:\USERS\PERO\DESKTOP\GAMEPROJECT\RACETRACK.0.1\RACETRACK.0.1\DEBUG\VC140.PDB
C:\USERS\PERO\DESKTOP\GAMEPROJECT\RACETRACK.0.1\RACETRACK.0.1\DEBUG\VC140.IDB
C:\USERS\PERO\DESKTOP\GAMEPROJECT\RACETRACK.0.1\RACETRACK.0.1\DEBUG\MY_COMPONENTS.OBJ
^C:\USERS\PERO\DESKTOP\GAMEPROJECT\RACETRACK.0.1\RACETRACK.0.1\CIRCLE.CPP|C:\USERS\PERO\DESKTOP\GAMEPROJECT\RACETRACK.0.1\RACETRACK.0.1\MAIN.CPP
C:\USERS\PERO\DESKTOP\GAMEPROJECT\RACETRACK.0.1\RACETRACK.0.1\DEBUG\VC140.PDB
C:\USERS\PERO\DESKTOP\GAMEPROJECT\RACETRACK.0.1\RACETRACK.0.1\DEBUG\VC140.IDB
C:\USERS\PERO\DESKTOP\GAMEPROJECT\RACETRACK.0.1\RACETRACK.0.1\DEBUG\CIRCLE.OBJ
C:\USERS\PERO\DESKTOP\GAMEPROJECT\RACETRACK.0.1\RACETRACK.0.1\DEBUG\MAIN.OBJ
^C:\USERS\PERO\DESKTOP\GAMEPROJECT\RACETRACK.0.1\RACETRACK.0.1\LOGIC.CPP|C:\USERS\PERO\DESKTOP\GAMEPROJECT\RACETRACK.0.1\RACETRACK.0.1\MAIN.CPP
C:\USERS\PERO\DESKTOP\GAMEPROJECT\RACETRACK.0.1\RACETRACK.0.1\DEBUG\VC140.PDB
C:\USERS\PERO\DESKTOP\GAMEPROJECT\RACETRACK.0.1\RACETRACK.0.1\DEBUG\VC140.IDB
C:\USERS\PERO\DESKTOP\GAMEPROJECT\RACETRACK.0.1\RACETRACK.0.1\DEBUG\LOGIC.OBJ
C:\USERS\PERO\DESKTOP\GAMEPROJECT\RACETRACK.0.1\RACETRACK.0.1\DEBUG\MAIN.OBJ
^C:\USERS\PERO\DESKTOP\GAMEPROJECT\RACETRACK.0.1\RACETRACK.0.1\LOGIC.CPP
C:\USERS\PERO\DESKTOP\GAMEPROJECT\RACETRACK.0.1\RACETRACK.0.1\DEBUG\VC140.PDB
C:\USERS\PERO\DESKTOP\GAMEPROJECT\RACETRACK.0.1\RACETRACK.0.1\DEBUG\VC140.IDB
C:\USERS\PERO\DESKTOP\GAMEPROJECT\RACETRACK.0.1\RACETRACK.0.1\DEBUG\LOGIC.OBJ
^C:\USERS\PERO\DESKTOP\GAMEPROJECT\RACETRACK.0.1\RACETRACK.0.1\ANIMATION.CPP|C:\USERS\PERO\DESKTOP\GAMEPROJECT\RACETRACK.0.1\RACETRACK.0.1\MAIN.CPP
C:\USERS\PERO\DESKTOP\GAMEPROJECT\RACETRACK.0.1\RACETRACK.0.1\DEBUG\VC140.PDB
C:\USERS\PERO\DESKTOP\GAMEPROJECT\RACETRACK.0.1\RACETRACK.0.1\DEBUG\VC140.IDB
C:\USERS\PERO\DESKTOP\GAMEPROJECT\RACETRACK.0.1\RACETRACK.0.1\DEBUG\ANIMATION.OBJ
C:\USERS\PERO\DESKTOP\GAMEPROJECT\RACETRACK.0.1\RACETRACK.0.1\DEBUG\MAIN.OBJ
^C:\USERS\PERO\DESKTOP\GAMEPROJECT\RACETRACK.0.1\RACETRACK.0.1\ANIMATION.CPP|C:\USERS\PERO\DESKTOP\GAMEPROJECT\RACETRACK.0.1\RACETRACK.0.1\CAR.CPP|C:\USERS\PERO\DESKTOP\GAMEPROJECT\RACETRACK.0.1\RACETRACK.0.1\CHARACTERS.CPP|C:\USERS\PERO\DESKTOP\GAMEPROJECT\RACETRACK.0.1\RACETRACK.0.1\MAIN.CPP
C:\USERS\PERO\DESKTOP\GAMEPROJECT\RACETRACK.0.1\RACETRACK.0.1\DEBUG\VC140.PDB
C:\USERS\PERO\DESKTOP\GAMEPROJECT\RACETRACK.0.1\RACETRACK.0.1\DEBUG\VC140.IDB
C:\USERS\PERO\DESKTOP\GAMEPROJECT\RACETRACK.0.1\RACETRACK.0.1\DEBUG\CAR.OBJ
C:\USERS\PERO\DESKTOP\GAMEPROJECT\RACETRACK.0.1\RACETRACK.0.1\DEBUG\CHARACTERS.OBJ
C:\USERS\PERO\DESKTOP\GAMEPROJECT\RACETRACK.0.1\RACETRACK.0.1\DEBUG\MAIN.OBJ
C:\USERS\PERO\DESKTOP\GAMEPROJECT\RACETRACK.0.1\RACETRACK.0.1\DEBUG\ANIMATION.OBJ
^C:\USERS\PERO\DESKTOP\GAMEPROJECT\RACETRACK.0.1\RACETRACK.0.1\CHARACTERS.CPP
C:\USERS\PERO\DESKTOP\GAMEPROJECT\RACETRACK.0.1\RACETRACK.0.1\DEBUG\VC140.PDB
C:\USERS\PERO\DESKTOP\GAMEPROJECT\RACETRACK.0.1\RACETRACK.0.1\DEBUG\VC140.IDB
C:\USERS\PERO\DESKTOP\GAMEPROJECT\RACETRACK.0.1\RACETRACK.0.1\DEBUG\CHARACTERS.OBJ
^C:\USERS\PERO\DESKTOP\GAMEPROJECT\RACETRACK.0.1\RACETRACK.0.1\ANIMATION.CPP|C:\USERS\PERO\DESKTOP\GAMEPROJECT\RACETRACK.0.1\RACETRACK.0.1\CHARACTERS.CPP|C:\USERS\PERO\DESKTOP\GAMEPROJECT\RACETRACK.0.1\RACETRACK.0.1\MAIN.CPP
C:\USERS\PERO\DESKTOP\GAMEPROJECT\RACETRACK.0.1\RACETRACK.0.1\DEBUG\VC140.PDB
C:\USERS\PERO\DESKTOP\GAMEPROJECT\RACETRACK.0.1\RACETRACK.0.1\DEBUG\VC140.IDB
C:\USERS\PERO\DESKTOP\GAMEPROJECT\RACETRACK.0.1\RACETRACK.0.1\DEBUG\CHARACTERS.OBJ
C:\USERS\PERO\DESKTOP\GAMEPROJECT\RACETRACK.0.1\RACETRACK.0.1\DEBUG\ANIMATION.OBJ
^C:\USERS\PERO\DESKTOP\GAMEPROJECT\RACETRACK.0.1\RACETRACK.0.1\CHARACTERS.CPP|C:\USERS\PERO\DESKTOP\GAMEPROJECT\RACETRACK.0.1\RACETRACK.0.1\MAIN.CPP
C:\USERS\PERO\DESKTOP\GAMEPROJECT\RACETRACK.0.1\RACETRACK.0.1\DEBUG\VC140.PDB
C:\USERS\PERO\DESKTOP\GAMEPROJECT\RACETRACK.0.1\RACETRACK.0.1\DEBUG\VC140.IDB
C:\USERS\PERO\DESKTOP\GAMEPROJECT\RACETRACK.0.1\RACETRACK.0.1\DEBUG\MAIN.OBJ
^C:\USERS\PERO\DESKTOP\GAMEPROJECT\RACETRACK.0.1\RACETRACK.0.1\ANIMATION.CPP|C:\USERS\PERO\DESKTOP\GAMEPROJECT\RACETRACK.0.1\RACETRACK.0.1\CHARACTERS.CPP
C:\USERS\PERO\DESKTOP\GAMEPROJECT\RACETRACK.0.1\RACETRACK.0.1\DEBUG\VC140.PDB
C:\USERS\PERO\DESKTOP\GAMEPROJECT\RACETRACK.0.1\RACETRACK.0.1\DEBUG\VC140.IDB
C:\USERS\PERO\DESKTOP\GAMEPROJECT\RACETRACK.0.1\RACETRACK.0.1\DEBUG\ANIMATION.OBJ
C:\USERS\PERO\DESKTOP\GAMEPROJECT\RACETRACK.0.1\RACETRACK.0.1\DEBUG\CHARACTERS.OBJ
^C:\USERS\PERO\DESKTOP\GAMEPROJECT\RACETRACK.0.1\RACETRACK.0.1\CAR.CPP|C:\USERS\PERO\DESKTOP\GAMEPROJECT\RACETRACK.0.1\RACETRACK.0.1\LOGIC.CPP|C:\USERS\PERO\DESKTOP\GAMEPROJECT\RACETRACK.0.1\RACETRACK.0.1\MAIN.CPP
C:\USERS\PERO\DESKTOP\GAMEPROJECT\RACETRACK.0.1\RACETRACK.0.1\DEBUG\VC140.PDB
C:\USERS\PERO\DESKTOP\GAMEPROJECT\RACETRACK.0.1\RACETRACK.0.1\DEBUG\VC140.IDB
C:\USERS\PERO\DESKTOP\GAMEPROJECT\RACETRACK.0.1\RACETRACK.0.1\DEBUG\LOGIC.OBJ
C:\USERS\PERO\DESKTOP\GAMEPROJECT\RACETRACK.0.1\RACETRACK.0.1\DEBUG\MAIN.OBJ
C:\USERS\PERO\DESKTOP\GAMEPROJECT\RACETRACK.0.1\RACETRACK.0.1\DEBUG\CAR.OBJ
^C:\USERS\PERO\DESKTOP\GAMEPROJECT\RACETRACK.0.1\RACETRACK.0.1\CAR.CPP|C:\USERS\PERO\DESKTOP\GAMEPROJECT\RACETRACK.0.1\RACETRACK.0.1\CIRCLE.CPP|C:\USERS\PERO\DESKTOP\GAMEPROJECT\RACETRACK.0.1\RACETRACK.0.1\LOGIC.CPP|C:\USERS\PERO\DESKTOP\GAMEPROJECT\RACETRACK.0.1\RACETRACK.0.1\MAIN.CPP
C:\USERS\PERO\DESKTOP\GAMEPROJECT\RACETRACK.0.1\RACETRACK.0.1\DEBUG\VC140.PDB
C:\USERS\PERO\DESKTOP\GAMEPROJECT\RACETRACK.0.1\RACETRACK.0.1\DEBUG\VC140.IDB
C:\USERS\PERO\DESKTOP\GAMEPROJECT\RACETRACK.0.1\RACETRACK.0.1\DEBUG\CAR.OBJ
C:\USERS\PERO\DESKTOP\GAMEPROJECT\RACETRACK.0.1\RACETRACK.0.1\DEBUG\CIRCLE.OBJ
C:\USERS\PERO\DESKTOP\GAMEPROJECT\RACETRACK.0.1\RACETRACK.0.1\DEBUG\LOGIC.OBJ
C:\USERS\PERO\DESKTOP\GAMEPROJECT\RACETRACK.0.1\RACETRACK.0.1\DEBUG\MAIN.OBJ
^C:\USERS\PERO\DESKTOP\GAMEPROJECT\RACETRACK.0.1\RACETRACK.0.1\CAR.CPP|C:\USERS\PERO\DESKTOP\GAMEPROJECT\RACETRACK.0.1\RACETRACK.0.1\LOGIC.CPP|C:\USERS\PERO\DESKTOP\GAMEPROJECT\RACETRACK.0.1\RACETRACK.0.1\MAIN.CPP|C:\USERS\PERO\DESKTOP\GAMEPROJECT\RACETRACK.0.1\RACETRACK.0.1\MY_COMPONENTS.CPP
C:\USERS\PERO\DESKTOP\GAMEPROJECT\RACETRACK.0.1\RACETRACK.0.1\DEBUG\VC140.PDB
C:\USERS\PERO\DESKTOP\GAMEPROJECT\RACETRACK.0.1\RACETRACK.0.1\DEBUG\VC140.IDB
C:\USERS\PERO\DESKTOP\GAMEPROJECT\RACETRACK.0.1\RACETRACK.0.1\DEBUG\LOGIC.OBJ
C:\USERS\PERO\DESKTOP\GAMEPROJECT\RACETRACK.0.1\RACETRACK.0.1\DEBUG\MY_COMPONENTS.OBJ
C:\USERS\PERO\DESKTOP\GAMEPROJECT\RACETRACK.0.1\RACETRACK.0.1\DEBUG\MAIN.OBJ
^C:\USERS\PERO\DESKTOP\GAMEPROJECT\RACETRACK.0.1\RACETRACK.0.1\CIRCLE.CPP|C:\USERS\PERO\DESKTOP\GAMEPROJECT\RACETRACK.0.1\RACETRACK.0.1\LOGIC.CPP|C:\USERS\PERO\DESKTOP\GAMEPROJECT\RACETRACK.0.1\RACETRACK.0.1\MAIN.CPP
C:\USERS\PERO\DESKTOP\GAMEPROJECT\RACETRACK.0.1\RACETRACK.0.1\DEBUG\VC140.PDB
C:\USERS\PERO\DESKTOP\GAMEPROJECT\RACETRACK.0.1\RACETRACK.0.1\DEBUG\VC140.IDB
C:\USERS\PERO\DESKTOP\GAMEPROJECT\RACETRACK.0.1\RACETRACK.0.1\DEBUG\CIRCLE.OBJ
C:\USERS\PERO\DESKTOP\GAMEPROJECT\RACETRACK.0.1\RACETRACK.0.1\DEBUG\LOGIC.OBJ
C:\USERS\PERO\DESKTOP\GAMEPROJECT\RACETRACK.0.1\RACETRACK.0.1\DEBUG\MAIN.OBJ
^C:\USERS\PERO\DESKTOP\GAMEPROJECT\RACETRACK.0.1\RACETRACK.0.1\CHARACTERS.CPP|C:\USERS\PERO\DESKTOP\GAMEPROJECT\RACETRACK.0.1\RACETRACK.0.1\CIRCLE.CPP|C:\USERS\PERO\DESKTOP\GAMEPROJECT\RACETRACK.0.1\RACETRACK.0.1\LOGIC.CPP|C:\USERS\PERO\DESKTOP\GAMEPROJECT\RACETRACK.0.1\RACETRACK.0.1\MAIN.CPP
C:\USERS\PERO\DESKTOP\GAMEPROJECT\RACETRACK.0.1\RACETRACK.0.1\DEBUG\VC140.PDB
C:\USERS\PERO\DESKTOP\GAMEPROJECT\RACETRACK.0.1\RACETRACK.0.1\DEBUG\VC140.IDB
C:\USERS\PERO\DESKTOP\GAMEPROJECT\RACETRACK.0.1\RACETRACK.0.1\DEBUG\CIRCLE.OBJ
C:\USERS\PERO\DESKTOP\GAMEPROJECT\RACETRACK.0.1\RACETRACK.0.1\DEBUG\MAIN.OBJ
C:\USERS\PERO\DESKTOP\GAMEPROJECT\RACETRACK.0.1\RACETRACK.0.1\DEBUG\CHARACTERS.OBJ
C:\USERS\PERO\DESKTOP\GAMEPROJECT\RACETRACK.0.1\RACETRACK.0.1\DEBUG\LOGIC.OBJ
^C:\USERS\PERO\DESKTOP\GAMEPROJECT\RACETRACK.0.1\RACETRACK.0.1\CHARACTERS.CPP|C:\USERS\PERO\DESKTOP\GAMEPROJECT\RACETRACK.0.1\RACETRACK.0.1\LOGIC.CPP|C:\USERS\PERO\DESKTOP\GAMEPROJECT\RACETRACK.0.1\RACETRACK.0.1\MAIN.CPP
C:\USERS\PERO\DESKTOP\GAMEPROJECT\RACETRACK.0.1\RACETRACK.0.1\DEBUG\VC140.PDB
C:\USERS\PERO\DESKTOP\GAMEPROJECT\RACETRACK.0.1\RACETRACK.0.1\DEBUG\VC140.IDB
C:\USERS\PERO\DESKTOP\GAMEPROJECT\RACETRACK.0.1\RACETRACK.0.1\DEBUG\MAIN.OBJ
C:\USERS\PERO\DESKTOP\GAMEPROJECT\RACETRACK.0.1\RACETRACK.0.1\DEBUG\CHARACTERS.OBJ
C:\USERS\PERO\DESKTOP\GAMEPROJECT\RACETRACK.0.1\RACETRACK.0.1\DEBUG\LOGIC.OBJ
^C:\USERS\PERO\DESKTOP\GAMEPROJECT\RACETRACK.0.1\RACETRACK.0.1\CHARACTERS.CPP|C:\USERS\PERO\DESKTOP\GAMEPROJECT\RACETRACK.0.1\RACETRACK.0.1\LOGIC.CPP
C:\USERS\PERO\DESKTOP\GAMEPROJECT\RACETRACK.0.1\RACETRACK.0.1\DEBUG\VC140.PDB
C:\USERS\PERO\DESKTOP\GAMEPROJECT\RACETRACK.0.1\RACETRACK.0.1\DEBUG\VC140.IDB
C:\USERS\PERO\DESKTOP\GAMEPROJECT\RACETRACK.0.1\RACETRACK.0.1\DEBUG\CHARACTERS.OBJ
C:\USERS\PERO\DESKTOP\GAMEPROJECT\RACETRACK.0.1\RACETRACK.0.1\DEBUG\LOGIC.OBJ
^C:\USERS\PERO\DESKTOP\GAMEPROJECT\RACETRACK.0.1\RACETRACK.0.1\CAR.CPP|C:\USERS\PERO\DESKTOP\GAMEPROJECT\RACETRACK.0.1\RACETRACK.0.1\CHARACTERS.CPP|C:\USERS\PERO\DESKTOP\GAMEPROJECT\RACETRACK.0.1\RACETRACK.0.1\CIRCLE.CPP
C:\USERS\PERO\DESKTOP\GAMEPROJECT\RACETRACK.0.1\RACETRACK.0.1\DEBUG\VC140.PDB
C:\USERS\PERO\DESKTOP\GAMEPROJECT\RACETRACK.0.1\RACETRACK.0.1\DEBUG\VC140.IDB
C:\USERS\PERO\DESKTOP\GAMEPROJECT\RACETRACK.0.1\RACETRACK.0.1\DEBUG\CAR.OBJ
C:\USERS\PERO\DESKTOP\GAMEPROJECT\RACETRACK.0.1\RACETRACK.0.1\DEBUG\CHARACTERS.OBJ
C:\USERS\PERO\DESKTOP\GAMEPROJECT\RACETRACK.0.1\RACETRACK.0.1\DEBUG\CIRCLE.OBJ
^C:\USERS\PERO\DESKTOP\GAMEPROJECT\RACETRACK.0.1\RACETRACK.0.1\CAR.CPP|C:\USERS\PERO\DESKTOP\GAMEPROJECT\RACETRACK.0.1\RACETRACK.0.1\CHARACTERS.CPP
C:\USERS\PERO\DESKTOP\GAMEPROJECT\RACETRACK.0.1\RACETRACK.0.1\DEBUG\VC140.PDB
C:\USERS\PERO\DESKTOP\GAMEPROJECT\RACETRACK.0.1\RACETRACK.0.1\DEBUG\VC140.IDB
C:\USERS\PERO\DESKTOP\GAMEPROJECT\RACETRACK.0.1\RACETRACK.0.1\DEBUG\CAR.OBJ
C:\USERS\PERO\DESKTOP\GAMEPROJECT\RACETRACK.0.1\RACETRACK.0.1\DEBUG\CHARACTERS.OBJ
